…
    ## `summarise()` ungrouping output (override with `.groups` argument)

``` r
yield5pops
```

    ## # A tibble: 25 x 10
    ##    population  mean    sd   min   max     n logmean logsd logmin logmax
    ##    <fct>      <dbl> <dbl> <dbl> <dbl> <int>   <dbl> <dbl>  <dbl>  <dbl>
    ##  1 NV_6a      127.   31.6 66.2  157.      8    4.81 0.295   4.19   5.06
    ##  2 ID_4        22.7  17.7  3.94  62.3     8    2.87 0.798   1.37   4.13
    ##  3 NV_12       27.9  22.9 11.6   77.8     7    3.13 0.624   2.45   4.35
    ##  4 UT_1        87.9  32.5 44.5  134.      8    4.41 0.413   3.80   4.90
    ##  5 NV_1        89.8  31.2 45.0  149.      8    4.44 0.357   3.81   5.01
    ##  6 NV_10       93.5  39.4 34.4  139.      8    4.43 0.545   3.54   4.93
    ##  7 NV_5        97.8  45.3 43.6  181.      8    4.49 0.451   3.77   5.20
    ##  8 UT_4a       62.7  23.3 32.0   90.9     8    4.07 0.401   3.46   4.51
    ##  9 ID_7        47.3  29.9 12.4   94.1     5    3.67 0.739   2.51   4.54
    ## 10 UT_5a       66.2  32.2 22.8  117.      8    4.07 0.548   3.13   4.76
    ## # … with 15 more rows
…
